
"bin.v2\libs\nowide\build\msvc-14.2\release\address-model-64\link-static\threading-multi\cstdio.obj" 
"bin.v2\libs\nowide\build\msvc-14.2\release\address-model-64\link-static\threading-multi\cstdlib.obj" 
"bin.v2\libs\nowide\build\msvc-14.2\release\address-model-64\link-static\threading-multi\iostream.obj"   