"libs\timer\src\auto_timers_construction.cpp" -Fo"bin.v2\libs\timer\build\msvc-14.2\release\link-static\threading-multi\auto_timers_construction.obj"    -TP /O2 /Ob2 /W3 /GR /MD /Zc:forScope /Zc:wchar_t /wd4675 /EHs -c 
-DBOOST_ALL_NO_LIB=1 
-DBOOST_CHRONO_STATIC_LINK=1 
-DBOOST_TIMER_STATIC_LINK=1 
-DNDEBUG 
"-I."