"libs\python\src\object\class.cpp" -Fo"bin.v2\libs\python\build\msvc-14.2\release\link-static\python-3.8\threading-multi\object\class.obj"    -TP /O2 /Ob2 /W3 /GR /MD /Zc:forScope /Zc:wchar_t /wd4675 /EHs -c 
-DBOOST_ALL_NO_LIB=1 
-DBOOST_PYTHON_SOURCE 
-DBOOST_PYTHON_STATIC_LIB 
-DNDEBUG 
"-I." 
"-IC:\Python38\Include"