"libs\fiber\src\timed_mutex.cpp" -Fo"bin.v2\libs\fiber\build\msvc-14.2\release\link-static\threading-multi\timed_mutex.obj"    -TP /O2 /Ob2 /W3 /GR /MD /Zc:forScope /Zc:wchar_t /wd4675 /EHs -c 
-DBOOST_ALL_NO_LIB=1 
-DBOOST_DISABLE_ASSERTS 
-DBOOST_FIBERS_SOURCE 
-DBOOST_FILESYSTEM_STATIC_LINK=1 
-DNDEBUG 
-D_WIN32_WINNT=0x0601 
"-I."