"libs\stacktrace\build\..\src\windbg.cpp" -Fo"bin.v2\libs\stacktrace\build\msvc-14.2\release\address-model-64\link-static\threading-multi\windbg.obj"    -TP /O2 /Ob2 /W4 /GR /MD /Zc:forScope /Zc:wchar_t /favor:blend /wd4675 /EHs -c 
-DBOOST_ALL_NO_LIB=1 
-DNDEBUG 
"-I."