"libs\thread\src\win32\thread_primitives.cpp" -Fo"bin.v2\libs\thread\build\msvc-14.2\release\address-model-64\link-static\threadapi-win32\threading-multi\win32\thread_primitives.obj"    -TP /O2 /Ob2 /W4 /GR /MD /Zc:forScope /Zc:wchar_t /favor:blend /wd4675 /EHs /wd4100 /wd4512 /wd6246 -c 
-DBOOST_ALL_NO_LIB=1 
-DBOOST_CHRONO_STATIC_LINK=1 
-DBOOST_THREAD_BUILD_LIB=1 
-DBOOST_THREAD_USES_CHRONO 
-DBOOST_THREAD_WIN32 
-DBOOST_USE_WINDOWS_H 
-DNDEBUG 
-DWIN32_LEAN_AND_MEAN 
"-I."