 -Fo"bin.v2\libs\math\build\msvc-14.2\release\address-model-64\link-static\threading-multi\pch.obj" -Yc"pch.hpp" -Yl"__bjam_pch_symbol_pch.hpp" -Fp"bin.v2\libs\math\build\msvc-14.2\release\address-model-64\link-static\threading-multi\pch.pch" -TP /O2 /Ob2 /W3 /GR /MD /Zc:forScope /Zc:wchar_t /favor:blend /wd4675 /EHs -c 
-DBOOST_ALL_NO_LIB=1 
-DBOOST_BUILD_PCH_ENABLED 
-DNDEBUG 
"-I." 
"-Ilibs\math\src\tr1"