"libs\context\src\dummy.cpp" -Fo"bin.v2\libs\context\build\msvc-14.2\debug\address-model-64\link-static\threading-multi\dummy.obj"    -TP /Z7 /Od /Ob0 /W3 /GR /MDd /Zc:forScope /Zc:wchar_t /favor:blend /wd4675 /EHs -c 
-DBOOST_ALL_NO_LIB=1 
-DBOOST_CONTEXT_EXPORT= 
-DBOOST_CONTEXT_SOURCE 
-D_WIN32_WINNT=0x0601 
"-I."