"libs\serialization\src\polymorphic_xml_wiarchive.cpp" -Fo"bin.v2\libs\serialization\build\msvc-14.2\debug\address-model-64\link-static\threading-multi\polymorphic_xml_wiarchive.obj"    -TP /Z7 /Od /Ob0 /W3 /GR /MDd /Zc:forScope /Zc:wchar_t /favor:blend /wd4675 /EHs /Gy -c 
-DBOOST_ALL_NO_LIB=1 
-D_CRT_SECURE_NO_WARNINGS 
-D_SCL_SECURE_NO_WARNINGS 
"-I."