"libs\serialization\src\basic_text_wiprimitive.cpp" -Fo"bin.v2\libs\serialization\build\msvc-14.2\release\link-static\threading-multi\basic_text_wiprimitive.obj"    -TP /O2 /Ob2 /W3 /GR /MD /Zc:forScope /Zc:wchar_t /wd4675 /EHs /Gy -c 
-DBOOST_ALL_NO_LIB=1 
-DNDEBUG 
-D_CRT_SECURE_NO_WARNINGS 
-D_SCL_SECURE_NO_WARNINGS 
"-I."