"libs\fiber\src\recursive_mutex.cpp" -Fo"bin.v2\libs\fiber\build\msvc-14.2\debug\address-model-64\link-static\threading-multi\recursive_mutex.obj"    -TP /Z7 /Od /Ob0 /W3 /GR /MDd /Zc:forScope /Zc:wchar_t /favor:blend /wd4675 /EHs -c 
-DBOOST_ALL_NO_LIB=1 
-DBOOST_FIBERS_SOURCE 
-DBOOST_FILESYSTEM_STATIC_LINK=1 
-D_WIN32_WINNT=0x0601 
"-I."