"libs\test\src\test_tools.cpp" -Fo"bin.v2\libs\test\build\msvc-14.2\release\address-model-64\link-static\threading-multi\test_tools.obj"    -TP /O2 /Ob2 /W4 /GR /MD /Zc:forScope /Zc:wchar_t /favor:blend /wd4675 /EHs -wd4671 -wd4673 -c 
-DBOOST_ALL_NO_LIB=1 
-DNDEBUG 
"-I."