"libs\python\src\converter\arg_to_python_base.cpp" -Fo"bin.v2\libs\python\build\msvc-14.2\release\address-model-64\link-static\python-3.8\threading-multi\converter\arg_to_python_base.obj"    -TP /O2 /Ob2 /W3 /GR /MD /Zc:forScope /Zc:wchar_t /favor:blend /wd4675 /EHs -c 
-DBOOST_ALL_NO_LIB=1 
-DBOOST_PYTHON_SOURCE 
-DBOOST_PYTHON_STATIC_LIB 
-DNDEBUG 
"-I." 
"-IC:\Python38\Include"