"libs\iostreams\src\mapped_file.cpp" -Fo"bin.v2\libs\iostreams\build\msvc-14.2\release\link-static\threading-multi\mapped_file.obj"    -TP /O2 /Ob2 /W3 /GR /MD /Zc:forScope /Zc:wchar_t /wd4675 /EHs -c 
-DBOOST_ALL_NO_LIB=1 
-DBOOST_IOSTREAMS_LZMA_NO_MULTITHREADED=1 
-DBOOST_IOSTREAMS_USE_DEPRECATED 
-DNDEBUG 
"-I."