"libs\wave\src\instantiate_defined_grammar.cpp" -Fo"bin.v2\libs\wave\build\msvc-14.2\release\address-model-64\link-static\threading-multi\instantiate_defined_grammar.obj"    -TP /O2 /Ob2 /W3 /GR /MD /Zc:forScope /Zc:wchar_t /favor:blend /wd4675 /EHs -c 
-DBOOST_ALL_NO_LIB=1 
-DBOOST_THREAD_USE_LIB=1 
-DNDEBUG 
-D_CRT_SECURE_NO_DEPRECATE 
-D_SCL_SECURE_NO_DEPRECATE 
"-I."