"libs\wave\src\token_ids.cpp" -Fo"bin.v2\libs\wave\build\msvc-14.2\debug\link-static\threading-multi\token_ids.obj"    -TP /Z7 /Od /Ob0 /W3 /GR /MDd /Zc:forScope /Zc:wchar_t /wd4675 /EHs -c 
-DBOOST_ALL_NO_LIB=1 
-DBOOST_THREAD_USE_LIB=1 
-D_CRT_SECURE_NO_DEPRECATE 
-D_SCL_SECURE_NO_DEPRECATE 
"-I."