"libs\context\src\..\build\cxx11_hdr_mutex.cpp" -Fo"bin.v2\libs\context\build\msvc-14.2\debug\address-model-64\threading-multi\cxx11_hdr_mutex_check.obj"    -TP /Z7 /Od /Ob0 /W3 /GR /MDd /Zc:forScope /Zc:wchar_t /favor:blend /wd4675 /EHs -c 
-DBOOST_ALL_NO_LIB=1 
-DBOOST_CONTEXT_DYN_LINK=1 
-DBOOST_CONTEXT_EXPORT=EXPORT 
-DBOOST_CONTEXT_SOURCE 
-D_WIN32_WINNT=0x0601 
"-I."