"libs\fiber\src\algo\shared_work.cpp" -Fo"bin.v2\libs\fiber\build\msvc-14.2\debug\link-static\threading-multi\algo\shared_work.obj"    -TP /Z7 /Od /Ob0 /W3 /GR /MDd /Zc:forScope /Zc:wchar_t /wd4675 /EHs -c 
-DBOOST_ALL_NO_LIB=1 
-DBOOST_FIBERS_SOURCE 
-DBOOST_FILESYSTEM_STATIC_LINK=1 
-D_WIN32_WINNT=0x0601 
"-I."