"libs\log\src\record_ostream.cpp" -Fo"bin.v2\libs\log\build\msvc-14.2\debug\address-model-64\link-static\threadapi-win32\threading-multi\record_ostream.obj"    -TP /Z7 /Od /Ob0 /W3 /GR /MDd /Zc:forScope /Zc:wchar_t /favor:blend /wd4675 /EHs /bigobj /wd4003 /wd4456 /wd4459 /wd4503 -c 
-DBOOST_ALL_NO_LIB=1 
-DBOOST_ATOMIC_STATIC_LINK=1 
-DBOOST_CHRONO_STATIC_LINK=1 
-DBOOST_FILESYSTEM_STATIC_LINK=1 
-DBOOST_LOG_BUILDING_THE_LIB=1 
-DBOOST_LOG_USE_AVX2 
-DBOOST_LOG_USE_SSSE3 
-DBOOST_SPIRIT_USE_PHOENIX_V3=1 
-DBOOST_THREAD_BUILD_LIB=1 
-DBOOST_THREAD_DONT_USE_CHRONO=1 
-DBOOST_THREAD_USE_LIB=1 
-DBOOST_THREAD_WIN32 
-DBOOST_USE_WINDOWS_H 
-DDATE_TIME_INLINE 
-DNOMINMAX 
-DSECURITY_WIN32 
-DWIN32_LEAN_AND_MEAN 
-D_CRT_SECURE_NO_DEPRECATE 
-D_CRT_SECURE_NO_WARNINGS 
-D_SCL_SECURE_NO_DEPRECATE 
-D_SCL_SECURE_NO_WARNINGS 
-D__STDC_CONSTANT_MACROS 
"-I." 
"-Ibin.v2\libs\log\build\msvc-14.2\debug\address-model-64\link-static\threadapi-win32\threading-multi" 
"-Ilibs\log\src"