"libs\container\src\global_resource.cpp" -Fo"bin.v2\libs\container\build\msvc-14.2\debug\link-static\threading-multi\global_resource.obj"    -TP /Z7 /Od /Ob0 /W3 /GR /MDd /Zc:forScope /Zc:wchar_t /wd4675 /EHs -c 
-DBOOST_ALL_NO_LIB=1 
-DBOOST_CONTAINER_STATIC_LINK=1 
"-I."