"libs\math\build\..\src\tr1\assoc_laguerre.cpp" -Fo"bin.v2\libs\math\build\msvc-14.2\debug\link-static\threading-multi\assoc_laguerre.obj"  -Yu"pch.hpp" -Fp"bin.v2\libs\math\build\msvc-14.2\debug\link-static\threading-multi\pch.pch" -TP /Z7 /Od /Ob0 /W3 /GR /MDd /Zc:forScope /Zc:wchar_t /wd4675 /EHs -c 
-DBOOST_ALL_NO_LIB=1 
-DBOOST_BUILD_PCH_ENABLED 
"-I." 
"-Ilibs\math\src\tr1"