"libs\locale\src\std\codecvt.cpp" -Fo"bin.v2\libs\locale\build\msvc-14.2\debug\address-model-64\link-static\threading-multi\std\codecvt.obj"    -TP /Z7 /Od /Ob0 /W3 /GR /MDd /Zc:forScope /Zc:wchar_t /favor:blend /wd4675 /EHs -c 
-DBOOST_ALL_NO_LIB=1 
-DBOOST_LOCALE_NO_POSIX_BACKEND=1 
-DBOOST_SYSTEM_STATIC_LINK=1 
-DBOOST_THREAD_NO_LIB=1 
"-I."