"libs\wave\src\instantiate_cpp_exprgrammar.cpp" -Fo"bin.v2\libs\wave\build\msvc-14.2\debug\address-model-64\link-static\threading-multi\instantiate_cpp_exprgrammar.obj"    -TP /Z7 /Od /Ob0 /W3 /GR /MDd /Zc:forScope /Zc:wchar_t /favor:blend /wd4675 /EHs -c 
-DBOOST_ALL_NO_LIB=1 
-DBOOST_THREAD_USE_LIB=1 
-D_CRT_SECURE_NO_DEPRECATE 
-D_SCL_SECURE_NO_DEPRECATE 
"-I."