{
  "version": 1,
  "graphics": {
    "api": "Vulkan",
    "resolutionX": 2560,
    "resolutionY": 1440,
    "renderResolutionX": -1,
    "renderResolutionY": -1,
    "vSync": true
  },
  "logging": {
    "minLogLevel": "info"
  }
}