"libs\python\src\slice.cpp" -Fo"bin.v2\libs\python\build\msvc-14.2\debug\link-static\python-3.8\threading-multi\slice.obj"    -TP /Z7 /Od /Ob0 /W3 /GR /MDd /Zc:forScope /Zc:wchar_t /wd4675 /EHs -c 
-DBOOST_ALL_NO_LIB=1 
-DBOOST_PYTHON_SOURCE 
-DBOOST_PYTHON_STATIC_LIB 
"-I." 
"-IC:\Python38\Include"