"libs\filesystem\src\utf8_codecvt_facet.cpp" -Fo"bin.v2\libs\filesystem\build\msvc-14.2\release\link-static\threading-multi\utf8_codecvt_facet.obj"    -TP /O2 /Ob2 /W3 /GR /MD /Zc:forScope /Zc:wchar_t /wd4675 /EHs -c 
-DBOOST_ALL_NO_LIB=1 
-DBOOST_FILESYSTEM_SOURCE 
-DBOOST_FILESYSTEM_STATIC_LINK=1 
-DNDEBUG 
"-I."